<?xml version="1.0" encoding="UTF-8"?>
<svg width="60px" height="80px" viewBox="0 0 60 80" version="1.1" xmlns="http://www.w3.org/2000/svg" xmlns:xlink="http://www.w3.org/1999/xlink">
    <title>beer-drink-jar-outline</title>
    <g id="Page-1" stroke="none" stroke-width="1" fill="none" fill-rule="evenodd">
        <g id="main" transform="translate(-450.000000, -1862.000000)" fill="#000000" fill-rule="nonzero">
            <g id="beer-drink-jar-outline" transform="translate(450.000000, 1862.000000)">
                <path d="M13,33 C11.8960499,33 11,34.1691005 11,35.6107521 L11,67.3892479 C11,68.8332903 11.8960499,70 13,70 C14.1039501,70 15,68.8332903 15,67.3892479 L15,35.6107521 C15,34.1691005 14.1039501,33 13,33 Z" id="Path"></path>
                <path d="M24,33 C22.8960499,33 22,34.1691005 22,35.6107521 L22,67.3892479 C22,68.8332903 22.8960499,70 24,70 C25.1039501,70 26,68.8332903 26,67.3892479 L26,35.6107521 C26,34.1691005 25.1039501,33 24,33 Z" id="Path"></path>
                <path d="M34,33 C32.8960499,33 32,34.1691005 32,35.6107521 L32,67.3892479 C32,68.8332903 32.8960499,70 34,70 C35.1039501,70 36,68.8332903 36,67.3892479 L36,35.6107521 C35.997921,34.1691005 35.1039501,33 34,33 Z" id="Path"></path>
                <path d="M49.9406544,33.8531196 L44.775892,33.8531196 L44.2114107,23.761659 C44.2065861,23.6819705 44.1872876,23.6046968 44.175226,23.5274231 C45.9531008,21.8346464 47.0748264,19.4512361 47.0748264,16.8070271 C47.0748264,11.7117933 42.949771,7.56557699 37.8670273,7.53418455 C37.2518874,4.15104591 34.2992162,1.57445139 30.745879,1.57445139 C29.5566086,1.57445139 28.4493569,1.89079055 27.4578962,2.40031392 C25.8102864,0.915210239 23.6392046,0 21.2558393,0 C17.6156588,0 14.4700025,2.1153672 12.9550699,5.17733708 C6.60344947,5.24495155 1.45557331,10.4319478 1.45557331,16.8070271 C1.45557331,19.060038 2.10931016,21.1585016 3.2213865,22.940626 C3.10318316,23.1917655 3.03081376,23.4694678 3.01392757,23.761659 L0.00336082076,77.6141749 C-0.0304115627,78.237194 0.191521243,78.8457243 0.616088349,79.2924628 C1.04306777,79.7464457 1.63408448,80 2.25646126,80 L44.9664647,80 C45.5864292,80 46.1798582,79.7464457 46.6068377,79.2924628 C47.0338171,78.8433095 47.2557499,78.2347792 47.2195652,77.6141749 L46.5923638,66.3974162 L49.938242,66.3974162 C55.4865622,66.3974162 60,62.0217936 60,56.6367835 L60,43.6113375 C60,38.231157 55.4865622,33.8531196 49.9406544,33.8531196 Z M12.0480401,8.25138097 C12.385764,8.21032932 12.7307248,8.18376649 13.0780978,8.18376649 C13.7704317,8.18376649 14.4386424,8.27552899 15.08273,8.43007637 C15.2250565,7.38688158 15.6110266,6.42579009 16.2044556,5.61200157 C17.3430674,4.04479459 19.1764254,3.01367382 21.2534269,3.01367382 C22.7008148,3.01367382 24.0179378,3.5280268 25.0793555,4.35630414 C25.9164282,5.01071569 26.5991128,5.85106704 27.0188553,6.84355097 C27.5230287,5.9041927 28.3625137,5.18216668 29.3853344,4.83202028 C29.8147261,4.68471732 30.2658287,4.58812521 30.7434667,4.58812521 C32.7987575,4.58812521 34.5163244,6.05874008 34.9047068,8.00507109 C34.9553654,8.27311419 34.9867254,8.55081651 34.9867254,8.83576323 C34.9867254,9.61091491 34.9047068,10.2918893 34.6224662,11.1298258 C34.7744419,11.2481512 36.709117,10.552688 37.7753594,10.5454436 C37.7874209,10.5454436 37.7994825,10.5430288 37.8115441,10.5430288 C41.2635641,10.5430288 44.0714966,13.3538592 44.0714966,16.8046123 C44.0714966,18.7533581 43.1596422,20.4775272 41.7580883,21.6269733 L23.4824043,21.6269733 L20.21372,21.6269733 L5.94006337,21.6269733 C5.00891051,20.2505358 4.46372775,18.5915663 4.46372775,16.8070271 C4.46372775,12.4024269 7.78307058,8.76331915 12.0480401,8.25138097 Z M4.64465123,75.4819041 L7.35850347,26.9250506 L7.40192511,26.1474841 L19.9821379,26.1474841 L39.8210009,26.1474841 L40.3034635,34.7755743 L40.4892116,38.1128317 L41.8738793,62.8718042 L42.0523905,66.0786622 L42.5782748,75.4794893 L4.64465123,75.4819041 L4.64465123,75.4819041 Z M45.3620841,44.37683 L49.2796806,44.37683 L49.2796806,55.8761206 L46.0037594,55.8761206 L45.3620841,44.37683 Z M56.9894332,56.6367835 C56.9894332,60.3579945 53.8268908,63.3837423 49.9358297,63.3837423 L46.4210895,63.3837423 L46.170209,58.8849648 L49.9358297,58.8849648 C51.2312419,58.8849648 52.287835,57.8755773 52.287835,56.6367835 L52.287835,43.6113375 C52.287835,42.3701289 51.2336542,41.3607413 49.9358297,41.3607413 L45.1908099,41.3607413 L44.9399293,36.8619638 L49.9358297,36.8619638 C53.8244785,36.8619638 56.9894332,39.8877117 56.9894332,43.6089227 L56.9894332,56.6367835 L56.9894332,56.6367835 Z" id="Shape"></path>
            </g>
        </g>
    </g>
</svg>