<?xml version="1.0" encoding="UTF-8"?>
<svg width="116px" height="67px" viewBox="0 0 116 67" version="1.1" xmlns="http://www.w3.org/2000/svg" xmlns:xlink="http://www.w3.org/1999/xlink">
    <title>Group 8</title>
    <g id="Page-1" stroke="none" stroke-width="1" fill="none" fill-rule="evenodd">
        <g id="main" transform="translate(-414.000000, -2503.000000)" fill="#000000" fill-rule="nonzero">
            <g id="Group-8" transform="translate(414.000000, 2503.000000)">
                <g id="chilli-copy">
                    <polygon id="Path" points="1.99595 64 2.00405 65 2.00405 64"></polygon>
                    <path d="M57.1586137,2.59514307 C57.8464419,2.31730715 58.1795095,1.53306422 57.9023713,0.843504458 C57.625233,0.153944696 56.8429594,-0.179961414 56.1551313,0.0978745075 C47.8911583,3.36444381 45.9078048,11.1758052 45.4473834,14.3003498 C42.4171616,14.3968082 39.5429223,15.670001 37.4313296,17.8509686 C35.2490505,20.0462866 34.0513647,23.0370912 34.1139348,26.1357458 C34.1847688,30.8699042 33.1458694,37.4503844 24.3742524,47.0133844 C18.7193337,53.096778 10.1129961,58.2925168 4.98933289,61.3815552 C0.51498181,64.0800255 -0.287804136,64.5652767 0.0781718103,65.8908411 C0.294805959,66.6073264 0.988094263,67.0690547 1.7309664,66.9915329 C8.54284127,66.9915329 25.7200994,65.9618534 37.9743907,56.3988534 C50.4293786,46.6819933 57.5718124,35.6040626 57.5718124,25.993721 C57.5694512,25.4550626 57.5299022,24.9172918 57.4537556,24.3841072 C56.7576634,19.4559962 53.0404989,15.5017904 48.1744945,14.5133869 C48.5994988,11.8029332 50.3585445,5.28163003 57.1586137,2.59514307 Z M36.3215961,54.2801696 C26.5583024,61.8903293 13.3477513,63.7484864 5.50878262,64.1982315 L6.37059695,63.6774741 C11.6241226,60.5055879 20.4311567,55.1914951 26.4402456,48.6938627 C35.8847861,38.4444097 36.9709083,31.1656412 36.8882686,25.9580669 C36.8882686,25.8042068 36.8882686,25.6503466 36.8882686,25.4964865 C38.8362051,25.8870545 41.0320607,26.6800261 41.4924821,27.5085038 C41.8301244,28.1650724 42.6346812,28.4229361 43.2894535,28.0844437 C43.3816853,28.0368063 43.4678668,27.9785169 43.5466696,27.9109072 C44.7816909,26.8803401 46.1673821,26.0460927 47.6550448,25.4373095 C48.6694475,26.2138594 49.4531968,27.2533031 49.9217345,28.4435001 C50.0527775,28.9030093 50.4165399,29.258663 50.8779942,29.3784964 C50.9876395,29.3928468 51.0987604,29.3928468 51.2085532,29.3784964 C51.5739388,29.3779046 51.9233868,29.2283348 52.1766186,28.9642575 C53.0028683,28.1168431 53.9126432,27.3555313 54.891924,26.6918615 C54.455114,35.2726715 47.6078221,45.4864704 36.3215961,54.2801696 Z M52.1724866,19.5144335 C53.3722384,20.6963457 54.2197383,22.1899727 54.6202459,23.8278436 C53.52645,24.3833675 52.5070299,25.0752943 51.5861872,25.8872025 C50.7860575,24.7051423 49.7827227,23.6753149 48.6229626,22.8455057 C48.2990444,22.6213729 47.8929291,22.5519879 47.5132291,22.6561394 C45.8177865,23.1739379 44.2215116,23.9741586 42.7909588,25.0232186 C41.1728434,23.8784399 39.3082845,23.1323661 37.3485423,22.8455057 C37.7806301,21.6382953 38.4694913,20.5398226 39.3673129,19.626278 C42.8725656,16.050361 48.6056968,16.0003564 52.1724866,19.5144335 Z" id="Shape"></path>
                </g>
                <g id="chilli-copy-2" transform="translate(58.000000, 0.000000)">
                    <polygon id="Path" points="1.99595 64 2.00405 65 2.00405 64"></polygon>
                    <path d="M57.1586137,2.59514307 C57.8464419,2.31730715 58.1795095,1.53306422 57.9023713,0.843504458 C57.625233,0.153944696 56.8429594,-0.179961414 56.1551313,0.0978745075 C47.8911583,3.36444381 45.9078048,11.1758052 45.4473834,14.3003498 C42.4171616,14.3968082 39.5429223,15.670001 37.4313296,17.8509686 C35.2490505,20.0462866 34.0513647,23.0370912 34.1139348,26.1357458 C34.1847688,30.8699042 33.1458694,37.4503844 24.3742524,47.0133844 C18.7193337,53.096778 10.1129961,58.2925168 4.98933289,61.3815552 C0.51498181,64.0800255 -0.287804136,64.5652767 0.0781718103,65.8908411 C0.294805959,66.6073264 0.988094263,67.0690547 1.7309664,66.9915329 C8.54284127,66.9915329 25.7200994,65.9618534 37.9743907,56.3988534 C50.4293786,46.6819933 57.5718124,35.6040626 57.5718124,25.993721 C57.5694512,25.4550626 57.5299022,24.9172918 57.4537556,24.3841072 C56.7576634,19.4559962 53.0404989,15.5017904 48.1744945,14.5133869 C48.5994988,11.8029332 50.3585445,5.28163003 57.1586137,2.59514307 Z M36.3215961,54.2801696 C26.5583024,61.8903293 13.3477513,63.7484864 5.50878262,64.1982315 L6.37059695,63.6774741 C11.6241226,60.5055879 20.4311567,55.1914951 26.4402456,48.6938627 C35.8847861,38.4444097 36.9709083,31.1656412 36.8882686,25.9580669 C36.8882686,25.8042068 36.8882686,25.6503466 36.8882686,25.4964865 C38.8362051,25.8870545 41.0320607,26.6800261 41.4924821,27.5085038 C41.8301244,28.1650724 42.6346812,28.4229361 43.2894535,28.0844437 C43.3816853,28.0368063 43.4678668,27.9785169 43.5466696,27.9109072 C44.7816909,26.8803401 46.1673821,26.0460927 47.6550448,25.4373095 C48.6694475,26.2138594 49.4531968,27.2533031 49.9217345,28.4435001 C50.0527775,28.9030093 50.4165399,29.258663 50.8779942,29.3784964 C50.9876395,29.3928468 51.0987604,29.3928468 51.2085532,29.3784964 C51.5739388,29.3779046 51.9233868,29.2283348 52.1766186,28.9642575 C53.0028683,28.1168431 53.9126432,27.3555313 54.891924,26.6918615 C54.455114,35.2726715 47.6078221,45.4864704 36.3215961,54.2801696 Z M52.1724866,19.5144335 C53.3722384,20.6963457 54.2197383,22.1899727 54.6202459,23.8278436 C53.52645,24.3833675 52.5070299,25.0752943 51.5861872,25.8872025 C50.7860575,24.7051423 49.7827227,23.6753149 48.6229626,22.8455057 C48.2990444,22.6213729 47.8929291,22.5519879 47.5132291,22.6561394 C45.8177865,23.1739379 44.2215116,23.9741586 42.7909588,25.0232186 C41.1728434,23.8784399 39.3082845,23.1323661 37.3485423,22.8455057 C37.7806301,21.6382953 38.4694913,20.5398226 39.3673129,19.626278 C42.8725656,16.050361 48.6056968,16.0003564 52.1724866,19.5144335 Z" id="Shape"></path>
                </g>
            </g>
        </g>
    </g>
</svg>