<?xml version="1.0" encoding="UTF-8"?>
<svg width="67px" height="65px" viewBox="0 0 67 65" version="1.1" xmlns="http://www.w3.org/2000/svg" xmlns:xlink="http://www.w3.org/1999/xlink">
    <title>speaker copy</title>
    <g id="Page-1" stroke="none" stroke-width="1" fill="none" fill-rule="evenodd">
        <g id="main" transform="translate(-448.000000, -3784.000000)" fill="#000000" fill-rule="nonzero">
            <g id="speaker-copy" transform="translate(448.000000, 3784.000000)">
                <path d="M35.616297,1.00006858 L15.1502442,13.3642163 L2.27722772,13.3642163 C1.01959076,13.3642163 0,14.3761544 0,15.624352 L0,49.3757119 C0,50.6239095 1.01959076,51.6358476 2.27722772,51.6358476 L15.1502442,51.6358476 L35.6161452,64 C40.1699934,66.7511831 46,63.501108 46,58.2081715 L46,6.79189234 C46,1.50076398 40.1712079,-1.75187265 35.616297,1.00006858 Z M4.55445545,17.8844877 L13.5115512,17.8844877 L13.5115512,47.1155761 L4.55445545,47.1155761 L4.55445545,17.8844877 Z M41.4455446,58.2081715 C41.4455446,59.970776 39.5042838,61.0571479 37.9841584,60.1387794 L18.0660066,48.1055156 L18.0660066,16.8945483 L37.9841584,4.8614351 C39.5015512,3.94472405 41.4455446,5.0258223 41.4455446,6.79204302 L41.4455446,58.2081715 Z" id="Shape"></path>
                <path d="M52.6323175,26.6597733 C51.7892275,27.539471 51.7892275,28.9656384 52.6323175,29.8453361 C54.0384269,31.3126503 54.0385709,33.6872934 52.6323175,35.1546076 C51.7892275,36.0343053 51.7892275,37.4604727 52.6323175,38.3401704 C53.4752636,39.2198681 54.8422265,39.2200183 55.6853164,38.3401704 C58.7715612,35.1199182 58.7715612,29.8800255 55.6853164,26.6597733 C54.8422265,25.7800756 53.4752636,25.7800756 52.6323175,26.6597733 L52.6323175,26.6597733 Z" id="Path"></path>
                <path d="M61.8152222,19.6698983 C60.9425627,18.7767006 59.5274149,18.7767006 58.6546064,19.6698983 C57.7817979,20.563096 57.7817979,22.0111497 58.6546064,22.9043474 C63.8248572,28.1953775 63.8248572,36.8045654 58.6546064,42.0955954 C57.7817979,42.9887931 57.7817979,44.4368468 58.6546064,45.3300445 C59.527266,46.2232422 60.9424137,46.2233947 61.8152222,45.3300445 C68.7282593,38.2555161 68.7282593,26.7444267 61.8152222,19.6698983 Z" id="Path"></path>
            </g>
        </g>
    </g>
</svg>